{
  "formatVersion": 1,
  "database": {
    "version": 1,
    "identityHash": "25f085ae16290c98e1cc2ea81c2a1407",
    "entities": [
      {
        "tableName": "injuries",
        "createSql": "CREATE TABLE IF NOT EXISTS `${TABLE_NAME}` (`id` INTEGER PRIMARY KEY AUTOINCREMENT NOT NULL, `name` TEXT NOT NULL, `date` TEXT NOT NULL, `imageUrl` TEXT NOT NULL, `exerciseOne` TEXT, `exerciseTwo` TEXT, `exerciseThree` TEXT, `exerciseFour` TEXT, `exerciseFive` TEXT, `timesCompleted` INTEGER)",
        "fields": [
          {
            "fieldPath": "id",
            "columnName": "id",
            "affinity": "INTEGER",
            "notNull": true
          },
          {
            "fieldPath": "name",
            "columnName": "name",
            "affinity": "TEXT",
            "notNull": true
          },
          {
            "fieldPath": "date",
            "columnName": "date",
            "affinity": "TEXT",
            "notNull": true
          },
          {
            "fieldPath": "imageUrl",
            "columnName": "imageUrl",
            "affinity": "TEXT",
            "notNull": true
          },
          {
            "fieldPath": "rehab.exerciseOne",
            "columnName": "exerciseOne",
            "affinity": "TEXT",
            "notNull": false
          },
          {
            "fieldPath": "rehab.exerciseTwo",
            "columnName": "exerciseTwo",
            "affinity": "TEXT",
            "notNull": false
          },
          {
            "fieldPath": "rehab.exerciseThree",
            "columnName": "exerciseThree",
            "affinity": "TEXT",
            "notNull": false
          },
          {
            "fieldPath": "rehab.exerciseFour",
            "columnName": "exerciseFour",
            "affinity": "TEXT",
            "notNull": false
          },
          {
            "fieldPath": "rehab.exerciseFive",
            "columnName": "exerciseFive",
            "affinity": "TEXT",
            "notNull": false
          },
          {
            "fieldPath": "rehab.timesCompleted",
            "columnName": "timesCompleted",
            "affinity": "INTEGER",
            "notNull": false
          }
        ],
        "primaryKey": {
          "columnNames": [
            "id"
          ],
          "autoGenerate": true
        },
        "indices": [],
        "foreignKeys": []
      }
    ],
    "views": [],
    "setupQueries": [
      "CREATE TABLE IF NOT EXISTS room_master_table (id INTEGER PRIMARY KEY,identity_hash TEXT)",
      "INSERT OR REPLACE INTO room_master_table (id,identity_hash) VALUES(42, '25f085ae16290c98e1cc2ea81c2a1407')"
    ]
  }
}